%YAML 1.1
%TAG !u! tag:unity3d.com,2011:
--- !u!1 &2085581591328146307
GameObject:
  m_ObjectHideFlags: 0
  m_CorrespondingSourceObject: {fileID: 0}
  m_PrefabInstance: {fileID: 0}
  m_PrefabAsset: {fileID: 0}
  serializedVersion: 6
  m_Component:
  - component: {fileID: 6608996628252086471}
  - component: {fileID: 5446338494250820523}
  m_Layer: 7
  m_Name: DanoZueira
  m_TagString: Spike
  m_Icon: {fileID: 0}
  m_NavMeshLayer: 0
  m_StaticEditorFlags: 0
  m_IsActive: 1
--- !u!4 &6608996628252086471
Transform:
  m_ObjectHideFlags: 0
  m_CorrespondingSourceObject: {fileID: 0}
  m_PrefabInstance: {fileID: 0}
  m_PrefabAsset: {fileID: 0}
  m_GameObject: {fileID: 2085581591328146307}
  m_LocalRotation: {x: 0, y: 0, z: 0, w: 1}
  m_LocalPosition: {x: 0, y: 0, z: 0}
  m_LocalScale: {x: 1, y: 1, z: 1}
  m_Children: []
  m_Father: {fileID: 8249235003164043809}
  m_RootOrder: 0
  m_LocalEulerAnglesHint: {x: 0, y: 0, z: 0}
--- !u!61 &5446338494250820523
BoxCollider2D:
  m_ObjectHideFlags: 0
  m_CorrespondingSourceObject: {fileID: 0}
  m_PrefabInstance: {fileID: 0}
  m_PrefabAsset: {fileID: 0}
  m_GameObject: {fileID: 2085581591328146307}
  m_Enabled: 1
  m_Density: 1
  m_Material: {fileID: 0}
  m_IsTrigger: 0
  m_UsedByEffector: 0
  m_UsedByComposite: 0
  m_Offset: {x: 0, y: -1.88}
  m_SpriteTilingProperty:
    border: {x: 0, y: 0, z: 0, w: 0}
    pivot: {x: 0, y: 0}
    oldSize: {x: 0, y: 0}
    newSize: {x: 0, y: 0}
    adaptiveTilingThreshold: 0
    drawMode: 0
    adaptiveTiling: 0
  m_AutoTiling: 0
  serializedVersion: 2
  m_Size: {x: 3.34, y: 1}
  m_EdgeRadius: 0
--- !u!50 &-6200602470319175071
Rigidbody2D:
  serializedVersion: 4
  m_ObjectHideFlags: 0
  m_CorrespondingSourceObject: {fileID: 0}
  m_PrefabInstance: {fileID: 0}
  m_PrefabAsset: {fileID: 0}
  m_GameObject: {fileID: 8249235003164043820}
  m_BodyType: 1
  m_Simulated: 1
  m_UseFullKinematicContacts: 0
  m_UseAutoMass: 0
  m_Mass: 1
  m_LinearDrag: 0
  m_AngularDrag: 0.05
  m_GravityScale: 1
  m_Material: {fileID: 0}
  m_Interpolate: 0
  m_SleepingMode: 1
  m_CollisionDetection: 0
  m_Constraints: 5
--- !u!61 &5759461818908975064
BoxCollider2D:
  m_ObjectHideFlags: 0
  m_CorrespondingSourceObject: {fileID: 0}
  m_PrefabInstance: {fileID: 0}
  m_PrefabAsset: {fileID: 0}
  m_GameObject: {fileID: 8249235003164043820}
  m_Enabled: 1
  m_Density: 1
  m_Material: {fileID: 0}
  m_IsTrigger: 0
  m_UsedByEffector: 0
  m_UsedByComposite: 0
  m_Offset: {x: -0.055015564, y: -0.66227436}
  m_SpriteTilingProperty:
    border: {x: 0, y: 0, z: 0, w: 0}
    pivot: {x: 0.5, y: 0.5}
    oldSize: {x: 4, y: 4}
    newSize: {x: 4, y: 4}
    adaptiveTilingThreshold: 0.5
    drawMode: 0
    adaptiveTiling: 0
  m_AutoTiling: 0
  serializedVersion: 2
  m_Size: {x: 3.6148224, y: 3.1786442}
  m_EdgeRadius: 0
--- !u!1001 &5757245507254118402
PrefabInstance:
  m_ObjectHideFlags: 0
  serializedVersion: 2
  m_Modification:
    m_TransformParent: {fileID: 0}
    m_Modifications:
    - target: {fileID: 4440254350079017507, guid: 6b63d282c5b4abf4396202198ca045f5, type: 3}
      propertyPath: m_RootOrder
      value: 0
      objectReference: {fileID: 0}
    - target: {fileID: 4440254350079017507, guid: 6b63d282c5b4abf4396202198ca045f5, type: 3}
      propertyPath: m_LocalPosition.x
      value: 142.09
      objectReference: {fileID: 0}
    - target: {fileID: 4440254350079017507, guid: 6b63d282c5b4abf4396202198ca045f5, type: 3}
      propertyPath: m_LocalPosition.y
      value: 12.09
      objectReference: {fileID: 0}
    - target: {fileID: 4440254350079017507, guid: 6b63d282c5b4abf4396202198ca045f5, type: 3}
      propertyPath: m_LocalPosition.z
      value: 0
      objectReference: {fileID: 0}
    - target: {fileID: 4440254350079017507, guid: 6b63d282c5b4abf4396202198ca045f5, type: 3}
      propertyPath: m_LocalRotation.w
      value: 1
      objectReference: {fileID: 0}
    - target: {fileID: 4440254350079017507, guid: 6b63d282c5b4abf4396202198ca045f5, type: 3}
      propertyPath: m_LocalRotation.x
      value: -0
      objectReference: {fileID: 0}
    - target: {fileID: 4440254350079017507, guid: 6b63d282c5b4abf4396202198ca045f5, type: 3}
      propertyPath: m_LocalRotation.y
      value: -0
      objectReference: {fileID: 0}
    - target: {fileID: 4440254350079017507, guid: 6b63d282c5b4abf4396202198ca045f5, type: 3}
      propertyPath: m_LocalRotation.z
      value: -0
      objectReference: {fileID: 0}
    - target: {fileID: 4440254350079017507, guid: 6b63d282c5b4abf4396202198ca045f5, type: 3}
      propertyPath: m_LocalEulerAnglesHint.x
      value: 0
      objectReference: {fileID: 0}
    - target: {fileID: 4440254350079017507, guid: 6b63d282c5b4abf4396202198ca045f5, type: 3}
      propertyPath: m_LocalEulerAnglesHint.y
      value: 0
      objectReference: {fileID: 0}
    - target: {fileID: 4440254350079017507, guid: 6b63d282c5b4abf4396202198ca045f5, type: 3}
      propertyPath: m_LocalEulerAnglesHint.z
      value: 0
      objectReference: {fileID: 0}
    - target: {fileID: 4440254350079017518, guid: 6b63d282c5b4abf4396202198ca045f5, type: 3}
      propertyPath: m_Name
      value: LustreCai
      objectReference: {fileID: 0}
    m_RemovedComponents: []
  m_SourcePrefab: {fileID: 100100000, guid: 6b63d282c5b4abf4396202198ca045f5, type: 3}
--- !u!1 &8249235003164043820 stripped
GameObject:
  m_CorrespondingSourceObject: {fileID: 4440254350079017518, guid: 6b63d282c5b4abf4396202198ca045f5, type: 3}
  m_PrefabInstance: {fileID: 5757245507254118402}
  m_PrefabAsset: {fileID: 0}
--- !u!4 &8249235003164043809 stripped
Transform:
  m_CorrespondingSourceObject: {fileID: 4440254350079017507, guid: 6b63d282c5b4abf4396202198ca045f5, type: 3}
  m_PrefabInstance: {fileID: 5757245507254118402}
  m_PrefabAsset: {fileID: 0}
